about	7999
after	4734
again	5094
am	6863
as	30151
away	4579
been	10350
did	7782
down	6198
ever	4221
get	4399
good	8916
in	71671
it	70040
king	4831
made	5779
my	27231
no	17267
nothing	4388
on	21592
out	11969
see	7463
she	23673
should	5344
t	14055
then	11326
there	16398
think	5503
this	23202
thy	4485
time	9060
to	117808
too	5140
when	12935
where	4727
will	14414
yet	4164
an	12886
are	13903
at	21839
by	20853
can	7670
come	6591
day	5959
every	4896
first	5079
for	38163
got	4494
great	5286
have	24625
here	6406
him	21921
his	34979
i	84472
if	13749
its	5313
know	7671
ll	4227
long	4584
make	5635
may	4996
me	20825
more	9438
much	5399
o	4378
of	120988
only	6302
or	14615
other	6705
our	7862
over	4724
said	10986
say	6070
such	7058
the	211837
their	10830
these	5779
upon	6692
were	14735
which	13787
with	35591
would	15551
a	102849
all	21845
and	173736
any	8480
be	28642
before	5722
but	33450
could	11330
d	10535
do	12995
from	15431
go	6336
had	26048
has	6857
he	48119
her	28625
how	7261
into	5848
is	40065
just	4133
let	4986
like	7126
little	5884
man	8230
most	4683
mr	5285
must	6165
never	6550
not	35143
now	10942
old	4724
one	15929
own	4178
s	28484
shall	6379
sir	4953
so	20927
some	7326
take	4261
than	7339
that	61391
them	12762
they	20829
thing	4450
thou	6002
two	6230
up	10767
us	6148
very	8403
was	53641
way	5229
we	20288
well	8551
what	14550
who	7712
you	44829
your	13561
